{
  "project_info": {
    "project_number": "848509592160",
    "project_id": "pushnotifications-4435b",
    "storage_bucket": "pushnotifications-4435b.appspot.com"
  },
  "client": [
    {
      "client_info": {
        "mobilesdk_app_id": "1:848509592160:android:dd5231bfc5a6d8cddbd905",
        "android_client_info": {
          "package_name": "com.thesellerapp"
        }
      },
      "oauth_client": [
        {
          "client_id": "848509592160-lg1ftc7lnmcp3ejp01u33qcrmrvkc4h0.apps.googleusercontent.com",
          "client_type": 1,
          "android_info": {
            "package_name": "com.thesellerapp",
            "certificate_hash": "d96c17ee10dec96a780c9688d6aed0ed611e863d"
          }
        },
        {
          "client_id": "848509592160-2gieocitvl02kq46ovv8vt7n1gt3plgl.apps.googleusercontent.com",
          "client_type": 3
        }
      ],
      "api_key": [
        {
          "current_key": "AIzaSyDAnwPCMPhJyOpqe07eIdNZCugGKUb7T94"
        }
      ],
      "services": {
        "appinvite_service": {
          "other_platform_oauth_client": [
            {
              "client_id": "848509592160-2gieocitvl02kq46ovv8vt7n1gt3plgl.apps.googleusercontent.com",
              "client_type": 3
            }
          ]
        }
      }
    }
  ],
  "configuration_version": "1"
}